FIP606 - Aula 4 - criação de dataframe e configuração dos dados
…
Pivot longer consegue transformar os dados do formato largo para o formato longo, para que possamos fazer um ggplot. Trabalhar com os dados em formato longo é muitas vezes preferível no R, especialmente ao utilizar os pacotes como tidyverse.

pepper |> 
  pivot_longer(2:4,
               names_to = "Epidemic",
               values_to = "inc")

# A tibble: 24 × 3
       t Epidemic   inc
   <dbl> <chr>    <dbl>
 1     0 1        0.08 
 2     0 2        0.001
 3     0 3        0.001
 4     7 1        0.13 
 5     7 2        0.01 
 6     7 3        0.001
 7    14 1        0.78 
 8    14 2        0.09 
 9    14 3        0.01 
10    21 1        0.92 
# ℹ 14 more rows
…
Aula 04 - Parte 02

library(janitor)
library(ggthemes)
library(gsheet)

Importação de dados de planilha

Formato .csv.

cr <- read_csv("https://raw.githubusercontent.com/emdelponte/paper-coffee-rust-Ethiopia/master/data/survey_clean.csv")
cr

# A tibble: 405 × 13
    farm region zone       district      lon   lat altitude cultivar shade    
   <dbl> <chr>  <chr>      <chr>       <dbl> <dbl>    <dbl> <chr>    <chr>    
 1     1 SNNPR  Bench Maji Debub Bench  35.4  6.90     1100 Local    Sun      
 2     2 SNNPR  Bench Maji Debub Bench  35.4  6.90     1342 Mixture  Mid shade
 3     3 SNNPR  Bench Maji Debub Bench  35.4  6.90     1434 Mixture  Mid shade
 4     4 SNNPR  Bench Maji Debub Bench  35.4  6.90     1100 Local    Sun      
 5     5 SNNPR  Bench Maji Debub Bench  35.4  6.90     1400 Local    Sun      
 6     6 SNNPR  Bench Maji Debub Bench  35.4  6.90     1342 Mixture  Mid shade
 7     7 SNNPR  Bench Maji Debub Bench  35.4  6.90     1432 Mixture  Mid shade
 8     8 SNNPR  Bench Maji Debub Bench  35.4  6.90     1100 Local    Sun      
 9     9 SNNPR  Bench Maji Debub Bench  35.4  6.89     1400 Local    Sun      
10    10 SNNPR  Bench Maji Debub Bench  35.4  6.88     1342 Mixture  Mid shade
# ℹ 395 more rows
# ℹ 4 more variables: cropping_system <chr>, farm_management <chr>, inc <dbl>,
#   sev2 <dbl>
…
